1,4,3184,33270,37014
1,5,3200,44883,48669
1,5,4138,62436,67114
1,5,4405,51165,56138
1,5,3564,41362,45781
1,5,3860,52570,58954
1,6,3773,79931,84250
1,6,4086,67811,72449
1,7,4337,97600,102544
1,7,4352,67620,72516
1,8,4588,65658,70797
1,8,7999,82379,90963
1,8,5000,60345,65901
1,2,4146,20404,25081
1,2,8347,9418,18287
1,2,14472,16762,35132
1,2,1064,9259,10841
1,2,1005,9722,11362
1,2,976,10199,11692
1,5,1428,61995,63936
20,4.8,4396.2,47239.45,52471.05
