4,1,5,3897,47368,51934
4,1,5,5274,47610,53525
4,1,5,21834,78391,101790
4,1,5,4289,83961,88881
4,1,5,4715,41635,46960
4,1,5,4967,57475,63022
4,1,5,4890,50342,55806
4,1,5,11309,73705,85605
5,1,5,14036,45771,60415
7,1,6,6406,55456,62461
8,1,4,4203,32853,37618
8,1,4,5854,27930,34357
8,1,4,4518,26940,32002
8,1,5,5239,35260,41084
8,1,5,6886,49259,56706
8,1,5,5535,35012,41095
8,1,5,10918,73302,89013
,,4.882352941,7339.411765,50721.76471,58957.29412
