4,1,5,1103,49189,50884
4,1,5,1310,43938,45854
5,1,5,1258,75113,76957
5,1,5,1555,67708,69868
5,1,5,1771,38678,41067
7,1,6,1812,67787,70198
7,1,6,2010,80056,82649
8,1,8,2435,92781,95815
8,1,8,2728,77233,80566
8,1,7,2988,58145,61731
,,6,1897,65062.8,67558.9
