3,1,4,6138,51208,60845
3,1,4,2280,35011,37881
3,1,4,2242,40548,43358
3,1,4,2367,65329,68272
5,1,5,3478,56137,60209
5,1,5,4241,42127,46992
5,1,5,3825,54124,58574
5,1,5,3966,44956,49503
5,1,5,4135,68895,73627
5,1,5,4189,66179,72165
7,1,5,7350,47666,55642
7,1,5,4040,38642,43288
,,4.666666667,4020.916667,50901.83333,55863
