4,1,5,2750,47585,51032
4,1,5,3142,52467,56295
4,1,5,3205,77154,80922
4,1,5,3466,72080,76120
4,1,5,3684,41900,46211
7,1,7,5432,79243,85260
7,1,7,5637,99513,105757
8,1,7,5752,97986,104324
8,1,7,5554,76160,82322
8,1,7,8473,56006,65082
9,1,4,4006,29598,34169
9,1,4,4150,39955,44683
9,1,5,6150,52040,58811
9,1,5,9389,82601,96724
9,1,5,3714,60925,65228
9,1,5,4942,48968,54465
9,1,5,5101,40426,46099
9,1,6,12405,85772,103870
,,5.5,5386.222222,63354.38889,69854.11111
