2,1,3,1432,62672,64694
2,1,3,1669,23566,25812
3,1,4,2079,34436,37088
3,1,4,2233,33763,36582
3,1,4,2360,69233,72176
3,1,4,2555,44673,47796
4,1,5,2986,44514,48141
4,1,5,3179,49487,53262
6,1,5,3567,47778,53775
6,1,5,7384,70412,78400
8,1,4,3880,32646,37114
8,1,4,3856,36618,41026
8,1,4,3772,50296,54671
8,1,4,3840,29385,33825
8,1,5,5595,36139,42294
8,1,5,8595,34961,44145
8,1,5,10338,62769,78023
8,1,5,3803,48590,52960
,,4.333333333,4062.388889,45107.66667,50099.11111
